{
  "apps": [
    {
      "name": "elastic-syslog-tunnel",
      "script": "./index.js",
      "kill_timeout" : 10000,
      "error_file": "./error.log",
      "env": {
        "INCOME_PORT": "1337",
        "INCOME_IP": "0.0.0.0",
        "ELASTIC_PORT": "9200",
        "ELASTIC_HOST": "localhost",
        "ELASTIC_LOGLEVEL": "warning", // look: node_modules/elasticsearch/src/lib/log.js
        "INCOME_TLS_KEY_FILE": "/opt/...../key.key",
        "INCOME_TLS_KEY_PASSPHRASE": "pass",
        "INCOME_TLS_CERTIFICATE": "/opt/...../cert.crt",
        "INCOME_TLS_CA": "/opt/...../ca.crt",
        "INCOME_LOG_VERBOSITY": "short",
      }
    }
  ]
}
